Global Research Identifier Database (GRID) • institutions
…
All tables in the database can be enumerated and accessed individually:

# enumerate all db tables
institutions_tables()
#>  [1] "acronyms"      "addresses"     "aliases"       "external_ids" 
#>  [5] "geonames"      "grid"          "institutes"    "labels"       
#>  [9] "links"         "relationships" "types"

# get acronym data
institutions_table("acronyms")
#> # A tibble: 41,210 x 2
#>    grid_id     acronym
#>    <chr>       <chr>  
#>  1 grid.1001.0 ANU    
#>  2 grid.1003.2 UQ     
#>  3 grid.1005.4 UNSW   
#>  4 grid.1007.6 UOW    
#>  5 grid.1009.8 UTAS   
#>  6 grid.1011.1 JCU    
#>  7 grid.1012.2 UWA    
#>  8 grid.1013.3 USYD   
#>  9 grid.1016.6 CSIRO  
#> 10 grid.1017.7 RMIT   
#> # … with 41,200 more rows
…
