Data from the Research Organization Registry Community • institutions
…
# why does IBM have so many acronyms? seemingly because it is a multi-national corp.
ror$ror_aliases %>% filter(aliases == "International Business Machines Corporation") %>% 
  inner_join(ror$ror_orgs) %>%  pull(name) %>% paste0(collapse = ", ")
#> Joining, by = "id"
#> [1] "IBM (France), IBM (Germany), IBM (Belgium), IBM (India), IBM (Egypt), IBM (Denmark), IBM (Portugal), IBM (Czechia), IBM (Ireland), IBM (Brazil), IBM (Slovakia)"

# what is the most frequently used acronym and which orgs use this abbreviation for its name?
ror$ror_acronyms %>% count(acronyms) %>% arrange(desc(n))
#> # A tibble: 29,347 × 2
#>    acronyms     n
#>    <chr>    <int>
#>  1 CCC         39
#>  2 AU          31
#>  3 HCC         30
#>  4 SCC         30
#>  5 MU          29
#>  6 MCC         28
#>  7 CRC         26
#>  8 BU          25
#>  9 CMC         25
#> 10 MSU         24
#> # … with 29,337 more rows
…
