Data from the Research Organization Registry Community • institutions
…
# why does IBM have so many acronyms? seemingly because it is a multi-national corp.
ror$ror_aliases %>% filter(aliases == "International Business Machines Corporation") %>% 
  inner_join(ror$ror_orgs) %>%  pull(name) %>% paste0(collapse = ", ")
#> Joining with `by = join_by(id)`
#> [1] "IBM (France), IBM (Belgium), IBM (India), IBM (Egypt), IBM (Denmark), IBM (Portugal), IBM (Czechia), IBM (Ireland), IBM (Brazil), IBM (Slovakia), IBM (Germany)"

# what is the most frequently used acronym and which orgs use this abbreviation for its name?
ror$ror_acronyms %>% count(acronyms) %>% arrange(desc(n))
#> # A tibble: 33,870 × 2
#>    acronyms     n
#>    <chr>    <int>
#>  1 CCC         44
#>  2 MU          33
#>  3 AU          32
#>  4 SCC         31
#>  5 HCC         30
#>  6 MCC         30
#>  7 CRC         29
#>  8 CMC         27
#>  9 MSU         27
#> 10 ARC         26
#> # ℹ 33,860 more rows
…
